<svg width="44" height="44" viewBox="0 0 44 44" fill="none" xmlns="http://www.w3.org/2000/svg">
<path fill-rule="evenodd" clip-rule="evenodd" d="M44 0H0V44H44V0ZM13 15C13 13.8954 13.8954 13 15 13H24V18V20H26H31V29C31 30.1046 30.1046 31 29 31H15C13.8954 31 13 30.1046 13 29V15ZM26 18V13C28.7614 13 31 15.2385 31 18H26Z" fill="white"/>
</svg>
